{
    "code": 200,
    "msg": "success",
    "data": {
         "totalCount": 1808,
        "totalPage": 181,
        "list":
        [{
            "posId": 3,
            "pageId": 1,
            "projectId": 11,
            "name": "test3",
            "description": "test",
            "status": null,
            "createTime": 1577239357000,
            "updateTime": 1577418791000,
            "type": null,
            "clearEnable": null,
            "lastModifyAccount": "zhuang"
        }]
    }
}
